{
  "DEBUG": true,
  "reports": [
    {
      "name": "RoomCards-Tomorrow",
      "report_id": "244",
      "report_run_id": "55706",
      "test_report_run_id": "231503",
      "test_target_org_id": "1333",
      "target_org_id": "1332",
      "from_address": "EMCSEvents@utsa.edu",
      "publication_date": "2018-10-26T09:22:10-05:00",
      "ws_base_url": "calendar.utsa.edu",
      "ws_base_uri": "/r25ws/wrd/run/",
      "key": "results?request=287B6E2F-36A1-456F-BF35-505AA94E0792"
    }
  ],
  "r25ws": {
    "username": "uctr",
    "password": "uctructr",
    "port": 80,
    "ws_base_url": "calendar.utsa.edu",
    "ws_base_uri": "/r25ws/wrd/run/",
    "25live_url": "calendar.utsa.edu",
    "25live_base_uri": "/25live/",
    "25live_base_url": "calendar.utsa.edu",
    "web_base_url": "uctr.utsa.edu/reports/",
    "web_base_uri": "/var/www/uctr/htdocs/reports/",
    "session": {
      "session_id": "DA6828438BF274EA107456E9796C987D",
      "session_date": "2018-10-26T14:22:41.874Z",
      "cookies": [
        "JSESSIONID=DA6828438BF274EA107456E9796C987D; Path=/r25ws; HttpOnly",
        "WSSESSIONID=DA6828438BF274EA107456E9796C987D; Domain=calendar.utsa.edu; Path=/r25ws"
      ],
      "success": true,
      "security_group_name": "UNIVERSITY CENTER - EMCS",
      "security_group_id": "33",
      "user_id": "2666"
    }
  }
}
