{
  "DEBUG": true,
  "reports": [
    {
      "name": "UCEvents-Access-Times-Weekend",
      "report_id": "327",
      "report_run_id": "168011",
      "target_org_id": "1332",
      "test_report_run_id": "202257",
      "test_target_org_id": "1333",
      "from_address": "EMCSEvents@utsa.edu",
      "publication_date": "2018-10-26T10:28:46-05:00",
      "ws_base_url": "calendar.utsa.edu",
      "ws_base_uri": "/r25ws/wrd/run/",
      "key": "results?request=AC07A3CB-2AB7-409E-BEF9-A068F73275B7"
    }
  ],
  "r25ws": {
    "username": "uctr",
    "password": "uctructr",
    "port": 80,
    "web_base_url": "uctr.utsa.edu/reports/",
    "web_base_uri": "/Users/rjq475/Development-utsa/libr25ws/",
    "ws_base_url": "calendar.utsa.edu",
    "ws_base_uri": "/r25ws/wrd/run/",
    "25live_url": "calendar.utsa.edu",
    "25live_base_uri": "/25live/",
    "25live_base_url": "calendar.utsa.edu",
    "session": {
      "session_id": "23FD170D125F713DDE485D387900B4CC",
      "session_date": "2018-10-26T15:29:01.900Z",
      "cookies": [
        "JSESSIONID=23FD170D125F713DDE485D387900B4CC; Path=/r25ws; HttpOnly",
        "WSSESSIONID=23FD170D125F713DDE485D387900B4CC; Domain=calendar.utsa.edu; Path=/r25ws"
      ],
      "success": true,
      "security_group_name": "UNIVERSITY CENTER - EMCS",
      "security_group_id": "33",
      "user_id": "2666"
    }
  }
}
