{
  "DEBUG": true,
  "reports": [
    {
      "name": "Worksheet-ThreeDay",
      "report_id": 305,
      "old_report_run_id": 124432,
      "report_run_id": 232030,
      "from_address": "emcsevents@utsa.edu",
      "target_org_id": 1753,
      "test_target_org_id": 1333,
      "publication_date": "2014-09-19T11:25:39-05:00",
      "ws_base_url": "calendar.utsa.edu",
      "ws_base_uri": "/r25ws/wrd/run/",
      "key": "results?request=BB1FABD7-929A-45D1-BD73-93692E1BF52E"
    }
  ]
}
